<?xml version="1.0" encoding="utf-8"?>
<!-- Generator: Adobe Illustrator 17.0.0, SVG Export Plug-In . SVG Version: 6.00 Build 0)  -->
<!DOCTYPE svg PUBLIC "-//W3C//DTD SVG 1.1//EN" "http://www.w3.org/Graphics/SVG/1.1/DTD/svg11.dtd">
<svg version="1.1" id="Layer_1" xmlns="http://www.w3.org/2000/svg" xmlns:xlink="http://www.w3.org/1999/xlink" x="0px" y="0px"
	 width="719.997px" height="103.506px" viewBox="0 0 719.997 103.506" enable-background="new 0 0 719.997 103.506"
	 xml:space="preserve">
<g>
	<path fill="#FF3C8F" d="M690.116,23.007c0.504-1.455,2.59-2.968,3.347-3.977c0.189-0.252,0.063-0.625,0.252-0.877
		c0.315-0.504,2.017-1.324,2.138-1.518c0.189,0.063,0.504,0.257,0.504,0.515l-0.189,0.126c-0.315,1.066-0.688,3.016-1.193,3.898
		c-0.063,0.126-0.315,0-0.315,0.315c0,0.252-2.143,2.527-2.459,2.716c-0.126,0-0.252-0.063-0.378-0.063c0,0-0.126,0.063-0.189,0.063
		l-0.315,0.63c-0.32,0.189-1.014,0.063-1.203,0.252c-0.126,0.126-0.189,0.567-0.315,0.63c-0.504,0.252-0.946-0.063-1.198,0.63
		c-0.126-0.063-0.315-0.189-0.315-0.378c0-0.441,0.504-0.63,0.63-0.883c0.126-0.252,0.063-0.693,0.252-0.883
		c0.126-0.126,0.504-0.126,0.63-0.315C689.99,23.637,689.927,23.259,690.116,23.007 M692.328,61.594
		c-0.126,0.126-0.378,0.189-0.567,0.189c-0.63,0-1.198-0.315-1.828-0.315c-0.126,0-0.252,0.063-0.315,0.126
		c-1.77-1.56-2.842-5.558-2.842-7.896c0-1.644-1.828-2.91-2.706-4.429c0.94-0.378,2.138-0.699,3.021-1.203
		c0.82-0.504,4.859-2.91,5.238-3.352c-0.063-0.189-0.063-0.315-0.063-0.504c0-0.252,0.567-0.252,0.688-0.441
		c0.252-0.32,0.063-0.825,0.315-1.203c1.072-0.315,1.576-2.721,1.576-3.667c0-1.14-0.378-2.343-1.009-3.283
		c-0.63-0.189-2.075-0.189-2.516-0.499l-0.189,0.189h-0.63c0,0.373-2.905,1.439-3.347,1.823c-0.189,0.126-0.063,0.441-0.252,0.567
		c-0.252,0.252-0.693,0.126-0.946,0.315c-1.324,0.888-2.643,2.406-3.714,3.478c-0.441,0.383-1.009,0.699-1.45,1.077
		c-1.198,0.378-2.333,1.77-3.278,2.59l0.441-0.946c0.189-0.504,0.63-0.189,0.63-1.077c0-0.883,1.135-2.149,1.198-2.275
		c0.252-0.252,0.378-1.14,0.567-1.518c0.189-0.315,0.504-0.567,0.694-0.888c0.693-1.135,2.08-3.84,2.08-3.966
		c0-0.315,0.126-0.126,0.315-0.315c0.252-0.315,0.378-1.266,0.63-1.77c0.252-0.441,1.508-1.702,1.76-2.143
		c0.378-0.757,0.883-1.765,1.513-2.396c0.315-0.252,0.883-0.189,1.261-0.315c0.63-0.82,3.094-2.08,2.716-1.828
		c0.378-0.315,1.072-0.378,1.513-0.63c0.189-0.063,0.189-0.441,0.315-0.567c0.378-0.378,1.513-0.82,1.828-1.198
		c0.189-0.252,0.063-0.63,0.252-0.946c0.441-0.699,1.256-1.014,1.571-1.833c0.189-0.504,0.126-1.198,0.252-1.765h0.315
		c0-1.376,0.693-1.823,0.693-2.643c0-0.814-1.45-0.94-2.017-0.94c-0.688,0-2.643,0.31-3.21,0.814
		c-0.063-0.063-0.189-0.063-0.252-0.063c-0.567,0.005-1.072,0.888-1.261,1.329c-0.126-0.063-0.315-0.063-0.441-0.063
		c-0.504,0-2.401,2.322-2.905,2.763c0.063,0.126,0.063,0.252,0.063,0.378c0,0.441-1.261,1.324-1.576,1.702
		c-1.072,1.14-1.765,2.464-2.706,3.662c-0.315,0.378-1.576,1.324-1.576,1.702c0,0.126,0.063,0.252,0.063,0.378
		c-0.252,0.063-0.441,0.189-0.63,0.315c0,1.261-0.63,0.567-0.883,1.513c-0.126,0.441-2.08,1.765-2.206,2.08
		c-0.693,1.897-2.143,2.653-3.53,3.909c-2.648,2.459-5.359,4.418-8.259,6.887c-1.072,0.946-2.711,2.086-3.593,3.037v0.504
		l0.883-0.378c0.883-0.189,3.026-2.086,3.846-2.784c0-0.189,1.513-0.757,1.828-1.14c0.693-0.883,1.702-1.513,2.711-1.96
		c0.504-0.82,0.315-1.072,1.324-1.518c1.324-0.567,1.954-2.086,3.341-2.459c-2.206,2.585-3.72,4.865-5.422,7.775
		c-0.441,0.82-1.261,1.639-1.261,2.527c0,0.378-0.378,0.315-0.567,0.504c-0.126,0.126-1.891,3.987-2.017,4.429
		c-0.189,0.63-0.63,1.203-0.946,1.77h-0.315c0,2.847-3.972,6.289-3.972,9.283l0.063,0.315c0.126,0.315,0.504,1.76,1.387,1.76
		c0.126,0,0.252-0.063,0.378-0.063c0.063,0.252,0.189,0.441,0.378,0.63c0.441,0,0.82-0.063,1.261-0.063
		c0.504,0,0.441,0.63,1.387,0.63c1.513,0,2.333-6.394,3.72-7.203c0-0.809,0.567-0.751,0.883-1.308
		c0.315-0.567,0.315-1.261,0.63-1.833c0.756-1.518,1.702-3.037,2.585-4.423c0.567-0.825,0.757-2.028,1.387-3.1
		c2.333-1.707,3.972-2.847,5.989-4.87c0.378-0.441,1.135-0.441,1.513-0.888c1.193-1.324,2.643-3.094,3.966-3.982
		c0.252-0.189,0.63-0.063,0.883-0.252c0.257-0.126,0.383-0.504,0.636-0.63l1.261-0.573c0.189,0,0.252,0.315,0.252,0.636
		c0,6.068-4.986,7.334-7.691,11.442c-0.883,0.189-1.891,0.252-2.711,0.636c0.378,2.905,1.702,5.816,1.891,8.458
		c0,0.252-0.063,0.562-0.063,0.814c0,0.62,0.315,0.373,0.63,0.683c0.189,0.252,0.189,0.688,0.315,0.94
		c1.508,3.063,2.39,3.373,4.66,3.373c0.883,0,3.725-0.126,4.418-0.436c2.201-0.94,4.408-2.191,6.236-3.814
		c0.762-0.683,2.401-2.369,3.157-2.369h0.252c0.126,0,0.252,0,0.378-0.126c-0.063-0.126-0.063-0.315-0.063-0.441l0.946-0.63
		c0.063,0.063,0.189,0.063,0.247,0.063c0.063,0,0.126,0,0.189-0.063c-0.063-0.194-0.063-0.32-0.063-0.51
		c0-0.315,3.026-1.96,3.467-3.1c1.072,0,1.261-0.82,1.954-1.387c2.333-1.902,4.665-3.672,6.998-5.695
		c0.756-0.63,2.396-2.086,2.08-2.149c0.063,0,0.189,0,0.252,0.063c0.252-0.252,1.387-1.392,1.387-1.77l-0.126-0.126
		c-0.315,0-1.324,0.567-1.45,0.883c-0.252,0.762-4.476,3.163-5.296,3.924c-1.954,1.833-3.719,3.415-5.989,5.311l-2.017,1.644
		c-0.189,0.189-0.189,0.63-0.315,0.883c-0.189-0.063-0.378-0.126-0.567-0.126c-0.562,0-1.949,1.455-2.138,1.96
		c-0.189,0.447-0.63,0.257-0.946,0.51c-2.527,1.881-4.418,3.877-7.313,5.248c-0.315,0.189-0.504,0.436-0.82,0.688L692.328,61.594z
		 M665.656,43.627c-0.63,0.567-1.387,0.94-2.08,1.445l-0.883,0.625c-0.315,0.252-0.441,0.693-0.756,0.946
		c-0.504,0.441-0.82,0.378-1.261,1.009c-0.82,0-1.135,1.455-1.513,1.455c-0.126,0-0.315,0-0.441-0.063
		c-0.252,0.252-0.378,0.946-0.757,0.946c-0.126,0-0.315,0-0.441-0.063c-0.189,0.126-0.126,0.504-0.315,0.63
		c-0.252,0.189-0.63,0.126-0.883,0.315c-0.883,0.63-1.765,1.324-2.774,1.828c-3.651,2.396-7.56,6.183-12.356,6.183
		c-1.324,0-2.711-2.149-2.711-3.41c0-2.774,1.324-5.674,2.585-7.949c1.702-0.126,3.41-1.576,3.536-1.576
		c0.378,0,0.693,0.063,1.072,0.063c1.45-0.877,2.585-2.07,3.656-2.385c0.63-0.126,3.525-2.716,3.525-4.166
		c0-1.828-4.408-2.264-5.732-2.264s-2.648,0.121-5.049,1.25c-0.315,0.126-0.63,0.693-0.946,0.951
		c-2.522,1.639-4.161,3.72-5.732,6.299c-0.126,0.252-0.504,0.441-0.63,0.63c-1.45,2.905-1.828,3.725-1.828,6.562
		c0,2.08,0.883,3.846,2.396,5.238c1.193,1.066,3.462,1.634,3.336,1.571v0.247c0.063,0.063,0.126,0.063,0.189,0.063
		c0.126,0,0.315,0,0.441-0.063c0.441,0.126,0.82,0.189,1.261,0.189c1.324,0,4.544-0.562,5.742-1.124
		c0.189-0.063,0.441-0.441,0.63-0.567c0.378-0.252,0.82-0.126,1.198-0.315c0.252-0.126,0.378-0.504,0.63-0.63
		c0.315-0.189,0.946-0.063,1.198-0.257c0.63-0.441,1.261-1.261,1.891-1.765c0.625-0.504,1.382-0.82,2.012-1.261
		c0.189-0.126,0.126-0.504,0.315-0.63c0.252-0.189,0.63-0.126,0.883-0.315c0.252-0.189,0.189-0.63,0.504-0.63
		c0.126,0,0.315,0,0.441,0.063c1.639-1.072,2.9-2.585,4.539-3.656c0.252-0.189,0.63-0.063,0.883-0.315l0.252-0.257l2.143-2.333
		c0-0.315,2.522-1.697,2.963-2.133L665.656,43.627z M645.676,44.82c-0.693,0.252-1.45,0.315-2.149,0.63
		c-0.693,0.31-1.387,0.751-2.143,0.877c0.504-1.634,2.143-3.966,3.41-5.164c0.883-0.82,3.026-3.031,4.161-3.031
		c0.883,0,1.828,0.441,2.522,0.946c0,0.951-0.315,0.825-0.63,1.518c-0.63,1.576-1.576,1.387-2.711,2.396
		c-0.378,0.315-1.324,1.203-1.765,1.203h-0.378C645.865,44.384,645.802,44.63,645.676,44.82 M626.128,32.91
		c0.946-1.261,1.513-2.774,2.08-4.287c-0.126,0.063-0.315,0.063-0.441,0.063c-0.567,0-1.009-0.378-1.576-0.378
		c-0.946,0-1.198,1.639-1.198,2.333C624.993,31.523,625.245,32.595,626.128,32.91 M631.613,50.625l-0.252,0.126
		c-0.252,0-0.315,0.567-0.441,0.757c-0.252,0.315-0.946,0.315-1.261,0.63l-1.198,1.261c-0.315,0.315-0.946,1.387-1.135,1.513
		c-0.252,0.189-0.756,0.126-0.946,0.315c-0.126,0.126-0.126,0.378-0.315,0.567c-0.252,0.252-0.63,0.126-0.883,0.315
		c-0.756,0.504-1.828,1.891-2.396,2.143c-0.315,0.189-0.63,0.126-0.946,0.315c-0.252,0.189-0.378,0.63-0.63,0.883
		c-0.378,0.441-2.711,0.883-3.278,0.883c-0.378-0.567-0.504-1.261-0.504-1.891c0-2.143,1.009-6.241,2.017-7.754
		c0.126-0.126,1.198-3.846,1.513-4.539c0.946-0.504,1.513-3.656,1.513-4.854c-0.378-0.189-0.82-0.252-1.261-0.252
		c-1.639,0-2.459,1.135-2.963,1.135c-0.189,0-1.639,2.9-1.261,2.143c-1.135,1.702-2.012,3.53-2.706,5.422h-0.315
		c0,2.711-1.45,5.043-1.45,7.754c0,3.336,2.459,3.961,4.849,3.961c1.261,0,2.396-0.499,3.53-0.499
		c0.693-0.441,3.783-2.643,3.972-3.147c1.324,0,1.891-1.576,2.711-1.765c0.567-0.063,2.017-1.954,2.9-2.963
		c0.504-0.504,1.198-0.693,1.702-1.198c0-0.567,0.63-1.009,1.009-1.261l0.63-0.378c0.063,0,0.063,0,0.063-0.063
		c0.252,0,0.378-0.252,0.378-0.504h0.252c0.126,0,0.252-0.378,0.378-0.441c0.757-0.567,5.422-3.909,5.422-4.665
		C639.493,44.51,632.369,49.616,631.613,50.625 M616.104,45.513c-0.378,0.252-0.567,0.693-0.946,0.946
		c-1.828,1.198-2.774,1.513-3.909,3.026c-0.126,0-0.315-0.063-0.441-0.063c-0.82,0-1.891,1.828-2.837,1.828
		c-0.189,0-1.135,1.072-1.261,1.261c-0.126,0-0.315-0.063-0.441-0.063c-0.441,0-0.757,0.693-1.072,0.946
		c-0.504,0.378-1.324,0.504-1.828,0.883c-0.504,0.378-2.711,1.45-3.026,2.143c-1.066,0-0.441,0.189-0.94,0.567
		c-0.441,0.315-1.072,0.315-1.513,0.63c-0.63,0.378-0.63,0.757-1.513,1.198c-0.63,0.315-2.963,1.392-3.341,1.833
		c-0.126,0-0.252-0.063-0.378-0.063c-0.378,0,0.126,0.252-0.63,0.378c-1.135,0.252-2.023,0.757-3.283,0.757
		c-2.08,0-2.08-1.387-2.08-2.716c0-2.143,0.504-3.656,1.261-5.611c1.009-2.648,2.716-5.611,3.157-6.43l0.378-0.757l0.063-0.063
		v-0.252c0-0.252,0.504-0.51,0.63-0.699c1.576-2.27,2.585-4.224,6.052-4.224c0.51,0.504,0.636,1.135,0.636,1.828
		c0,0.315-0.384,0.82-0.384,1.198c0,0.189,0.194,0.378,0.384,0.378c0.872,0,1.187-0.504,1.187-1.324
		c0-2.769-1.886-3.016-3.714-3.016c-1.954,0-3.846,0.562-5.548,1.439c-1.581,0.757-2.023,1.639-2.842,2.207
		c-0.315,0.189-0.693,0.126-0.946,0.315c-1.261,0.693-1.639,2.401-1.823,2.716c-0.126,0.252-0.441,0.378-0.567,0.63
		c-1.765,2.963-2.516,5.359-2.516,8.889c0,1.576,0.562,2.968,0.688,3.22s0,0.82,0.315,1.198c0.315,0.441,2.143,1.135,2.706,1.508
		c0.693,0.436,3.656,0.625,4.539,0.625c0.257,0,0.194-0.247,0.32-0.31c0.63-0.252,1.576-0.063,2.08-0.315
		c0.252-0.126,0.378-0.499,0.63-0.625c0.315-0.126,0.82-0.126,1.198-0.252c0.567-0.126,0.946-0.82,1.513-0.946
		c1.387-0.441,3.341-2.149,4.282-2.716l3.341-2.08c2.648-1.639,5.296-3.404,7.88-5.169c0.504-0.378,1.324-1.702,1.954-1.702
		c0.315,0,1.45-1.324,1.954-1.324c0.315,0,1.387-1.135,1.45-1.261l0.126-0.252c0,0,0-0.063,0.063-0.063
		C616.798,45.639,616.419,45.513,616.104,45.513 M568.391,44.946c0,1.387-2.968,2.774-3.914,3.656l-0.946,0.883
		c-0.252,0.189-0.693,0.126-0.883,0.315c-0.126,0.126-0.189,0.504-0.315,0.63c-0.315,0.257-1.135,0.384-1.518,0.573
		c-0.82,0.504-0.82,0.82-1.765,0.82c-0.378,0-1.009,0-1.009-0.504c0-0.888,0.946-1.833,0.946-2.401c0-0.315,0.441-0.693,0.63-0.946
		c1.198-2.08,1.77-2.711,3.662-4.229c0.252-0.252,0.315-0.63,0.567-0.883c0.315-0.252,0.63-0.126,0.946-0.315
		c0.252-0.189,0.441-0.693,0.82-0.693h0.315c0.189,0,0.378,0,0.378-0.247C567.824,42.487,568.391,42.424,568.391,44.946
		 M589.752,43.112c0-0.063,0.063-0.184,0.063-0.184c0-0.189-0.441-0.247-0.567-0.247c-0.63,0-1.765,1.25-2.522,1.818
		c-1.387,1.077-2.837,2.086-4.161,3.22l-0.189-0.063c-2.017,1.513-8.006,5.742-10.213,5.742c-0.378,0-0.693-0.068-1.009-0.257
		c0.441-3.467,3.026-7.691,3.026-10.596c-0.63-0.504-1.45-0.693-2.206-0.693c-1.072,0-1.954,0.378-2.648,1.261
		c-0.189-1.634-2.516-2.259-3.903-2.259c-2.08,0-5.427,1.187-6.12,2.007c-2.769,1.266-4.786,4.481-6.357,6.94
		c0,1.014,0.189,2.459,1.76,2.459c0.252,0,0.504-0.063,0.757-0.063c0.504,0.562,3.084,0.688,4.156,0.688
		c1.135,0,0.757-0.31,1.513-0.688c1.461,0,0.767-0.31,1.524-0.877c0.252-0.189,0.63-0.126,0.883-0.315
		c0.757-0.51,2.27-2.59,3.152-2.59l0.189,0.189c-0.315,0.567-0.315,1.324-0.315,1.954c0,0.636,0,1.387,0.315,1.954
		c1.886,1.072,3.961,1.576,6.042,2.138c0.315-0.625,1.261-0.436,1.513-0.625c0.126-0.126,0.189-0.441,0.315-0.625
		c0.315-0.131,1.009-0.131,1.198-0.257c1.891-1.445,4.728-2.327,6.556-4.161c0.883-0.189,1.954-1.576,2.585-1.576l0.189-0.504
		c1.198-0.82,1.576-1.324,2.522-2.149L589.752,43.112z M466.441,69.974c1.707-0.946,3.662-7.187,5.427-9.141l-0.126-0.126
		c0.126-1.198,2.08-2.648,2.459-4.728l0.063-0.567c0.757,0,2.143-3.467,2.08-3.341c0.126-0.315,0.441-0.252,0.63-0.504l0.946-1.392
		c-0.063,0.126,0.883-1.072,1.009-1.135l0.757-1.324l0.693-0.441l0.315-0.883c0.189-0.189,0.378-0.315,0.63-0.441l0.315-0.82
		l0.63-0.441c0.946-1.954,2.338-3.278,3.725-5.164c0.504-0.126,0.814-0.504,0.94-1.009c0.063-0.31,2.143-2.916,2.333-3.362
		c0.441-1.271,1.382-0.825,2.206-2.858l0.189-0.384c0-0.063,0.825-1.208,0.825-1.208v-0.252c0.562-0.567,1.187-0.693,1.187-1.697
		c0.757,0,1.135-2.196,1.891-2.196c0.126,0,0.126,0.063,0.189,0.126c0.189-0.063,0.252-0.567,0.378-0.757l0.757-1.066
		c1.072-1.508,1.954-2.133,2.017-2.259c0.51-0.63-0.252-0.378,1.014-1.003c0.189-0.252,0-0.567,0.315-0.883
		c0.063-0.189,0.378-0.063,0.567-0.436V20.03l0.189-0.126l0.189,0.126c0.126,0,0.126-0.189,0.126-0.252
		c0.189-0.751,1.702-1.13,1.954-1.76c0.252-0.688,6.115-5.411,6.998-5.6l0.504-0.126c0.063,0,0.063,0.063,0.126,0.063
		c0.63,0,1.261-1.518,3.026-1.518c0.63-0.378,1.455-0.378,2.149-0.378h1.198c0,0.63,0.126,1.203,0.126,1.833
		c0,1.135-0.315,2.9-0.63,3.972c-0.504,1.566-1.765,2.7-1.765,4.203c-0.762,0.82-1.14,1.193-1.266,2.327
		c-0.189,0.184-0.504,0.184-0.63,0.436c-0.063,0.252-0.189,1.571-0.504,1.571l-0.189-0.126c-0.189,0-0.252,0.315-0.315,0.441
		l-0.063,0.814c-0.567,0.252-0.441-0.189-0.63,0.63l0.063,0.373c-0.252,0.504-1.765,3.583-2.143,3.583l-0.189,0.252l0.063,0.257
		c-0.757,1.397-1.513,2.795-2.333,4.192c-0.252,0.447-0.693,1.718-1.009,1.97l-0.504,0.384c-0.315,1.072-0.126,2.08-1.324,2.706
		c-0.189,0.567-0.63,2.27-1.135,2.522c-0.757,0.946-0.126,1.639-1.513,2.774l0.126,0.252c0,0.504-1.072,2.27-1.45,2.585
		c-0.063,0-0.252,0.063-0.315,0.189c0.063,0.189,0.252,0.378,0.252,0.63c-0.126,0.126-0.189,0.189-0.378,0.189l-0.636,1.518
		c-0.504,1.135-1.765,2.9-1.954,3.909c0,0.757-0.567,0.567-0.757,1.072c0,0.252,0,0.441,0.063,0.693
		c-0.189,1.072-0.693,1.45-0.883,2.963v0.693c0.82,0.126,1.576,0.693,2.459,0.693c0.189,0,0.441-0.063,0.63-0.126
		c0.378,0.189,0.762,0.315,1.203,0.441l0.252-0.126c1.009-1.261,1.765-2.774,2.837-4.035c0.063-0.315,0.63-0.378,0.63-0.693
		c0-0.126-0.063-0.252-0.063-0.378s1.135-2.017,1.45-2.017c0.189,0,0.189-0.063,0.189-0.252v-0.252
		c0.441-0.757,1.135-0.693,1.135-1.828c0.315-0.757,1.198-0.946,1.639-1.518c0.189-0.189,0.126-0.504,0.252-0.757
		c-0.063-0.126-0.063-0.252-0.063-0.315c0-0.504,2.143-2.396,2.711-3.972c0.252-0.63,0.504-0.315,0.883-0.693
		c0.378-0.378,0.82-1.261,1.135-1.765l0.693-0.441c0.63-1.45,2.338-2.39,3.347-3.651c0.189-0.625,0.252-0.688,0.877-1.009
		c2.39-3.241,1.571-2.096,2.201-3.115c0.378-0.573,1.198-0.762,1.45-1.461c0.189-0.636,1.644-1.655,1.644-2.038
		c0-0.126-0.063-0.252-0.126-0.315c0.693-0.567,1.324-1.009,1.891-1.697c0,0,1.954-2.574,3.341-3.515
		c0.378-1.508,2.396-1.571,2.711-2.763c0.189-0.946,2.522-2.322,2.963-2.763c0.441-0.441,2.968-3.016,3.599-3.016
		c1.009-0.005,2.889-2.333,4.534-2.333l0.063-0.247l0.378,0.058c0.504-0.247,1.198-1.319,1.765-1.319l0.378,0.189
		c0.189-0.252,0.757-0.888,1.072-0.888c0.063,0.063,0.189,0.189,0.315,0.189h0.063l1.387-0.441c0.378-0.126,0.126-0.567,0.946-0.567
		c0.189,0,0.383,0.189,0.636,0.189c0.063,0,0.252-0.063,0.315-0.063c0.189,0.825,0.378,1.707,0.378,2.595v1.193
		c0,3.331-3.725,11.369-3.662,11.243c0-0.126-0.63,1.193-1.513,2.07c-0.378,1.193-1.009,2.396-1.891,3.283
		c-0.189,0.384-0.063,0.762-0.378,1.145c-0.063,0.126-0.51,0.315-0.636,0.51c-0.315,0.378-0.378,0.888-0.567,1.271
		c-1.135,0.378-0.63,0.762-0.946,1.334c-0.315,0.573-1.503,2.028-1.629,2.343c-0.252,0.63-0.189,1.009-0.946,1.76v0.315
		c-1.014,0.504-0.699,0.693-0.888,1.324c-0.946,0-3.972,5.611-4.854,7.25c-0.441,0.378-1.324,1.455-1.324,2.086
		c0,0.189-2.522,4.35-2.774,4.35c-0.252,0.441-0.189,0.946-0.441,1.387c-0.063,0.126-0.441,0.063-0.504,0.126
		c-0.189,0.189-0.567,1.765-0.757,2.207c-0.189,0.126-0.441,0.189-0.63,0.378c-0.32,1.072-1.518,3.593-2.968,6.683
		c-0.756,0-0.378,1.009-1.702,3.53c-0.504,1.009-1.382,2.333-1.382,3.278c0,0.189,0.063,0.315,0.063,0.504
		c0,0.063-0.63,0.946-0.757,1.072l0.189,0.189c-0.567,0.252-1.324,3.783-1.513,4.539c-0.126,0.567-0.688,1.765-0.751,2.143
		L516,86.114c0.252,0.378,0.94,4.67,1.003,5.364c0.441,0.063,0.693,0.504,0.82,0.883s1.009,0,1.009,0.567
		c0.567,0.315,1.003,1.891,2.138,2.143c-0.757-0.126,4.166,2.007,5.805,2.007c0.441,0,0.946-0.436,2.017-0.688
		c0.063,0.063,0.189,0.252,0.315,0.252c0.063,0,0.063-0.063,0.126-0.063c0.82-0.751,0.82-0.94,2.017-1.129
		c2.585-2.396,6.373-4.413,8.064-7.886c0-0.82,0.063-1.954-0.683-2.522c-0.693,0.946-0.63,2.396-0.883,3.467
		c-0.82,0.378-0.888,1.329-1.455,1.833c-3.593,2.711-6.304,5.359-9.141,5.359c-2.527,0-3.41-2.27-4.86-2.27
		c-0.63,0-1.387-2.207-1.387-2.207l-0.126-0.441l0.252-1.009c-0.063-0.126-0.063-0.252-0.063-0.378c0-0.441,0.252-0.825,0.252-1.329
		c0-0.126-0.315-0.126-0.378-0.126c0.189-1.702,0.883-4.161,1.324-5.989c0.126-0.441,1.198-2.017,1.198-2.396
		c0,0-0.063-0.126-0.063-0.189l0.126-0.378c0,0,0-0.063,0.063-0.063l0.189-0.63c0.126-0.378,0.315-0.82,0.378-1.261
		c0.126-0.567,1.266-3.846,1.707-3.909c0.252-0.883,0.63-1.891,1.072-2.711v-0.252c0,0.504,0.63-1.576,1.009-1.954
		c1.009-0.252,2.459-4.287,3.152-5.926c-0.126,0.126,1.45-1.45,1.45-2.648c0.441-0.63,1.765-2.648,1.891-3.278
		c0,0,0.126-0.126,0.189-0.189c-0.063,0.063,1.387-1.513,1.387-2.207v-0.378l0.315-0.063c0.441-0.883,1.329-2.774,1.644-2.774h0.126
		c0,0,0.189-0.32,0.693-1.203l1.755-3.089l-0.063-0.567c0.441-0.126,1.518-1.324,1.518-1.954l0.378-0.82
		c0.126-0.315,0.252-0.189,0.378-0.378c0.315-0.441,0.378-1.072,0.693-1.513c0.567-0.82,1.261-1.634,1.576-2.579
		c0.126-0.252,0.252-0.063,0.315-0.252l0.567-1.644c0.315-0.32,1.072-1.082,1.072-1.529c0-0.573,0.883-1.524,1.261-2.417
		c0.447-0.951,1.644-2.411,1.954-3.294l0.63-1.818c0.504-1.571,1.949-3.394,1.949-5.212c0-0.189-0.063-0.441-0.063-0.63
		c0.441-1.193,0.693-3.01,0.693-4.266c0-0.189-0.063-0.441-0.063-0.63v-1.066c0-1.072-1.382-5.29-4.529-5.29
		c-0.447,0-1.266,0.441-1.644,0.693l-0.82,0.058c-0.504,0.247-0.82,0.063-1.135,0.562c-0.315,0.126-3.152,1.266-3.152,1.46
		l-0.126,0.189c-0.573,0-0.384,0.184-0.636,0.247c-0.126-0.063-0.315-0.126-0.441-0.126c-0.315,0.189-0.63,0.51-0.883,0.825
		c-0.126,0-0.189-0.126-0.315-0.126c-0.935,0-2.07,2.196-3.21,2.196c-0.378,0-2.143,1.319-2.585,1.76
		c-0.946,0.378-1.387,1.382-2.143,1.949l-0.126,0.562c-1.324,1.13-2.017,1.319-3.278,2.763c0,0.126-0.063,0.378-0.126,0.441h-0.252
		c-0.252,0.373,0.126,0.499-0.63,0.499c-0.063-0.562,0.063,0.946-1.198,1.382c-0.693,0-0.883,1.571-2.396,2.889
		c-0.252,0.189-0.757,0.252-0.946,0.504c-0.131,0.126,0,1.066-0.447,1.193c-1.072,0.252-0.693,0.762-1.639,2.159l-0.693,0.126
		c-0.189,0.257-0.189,0.573-0.315,0.893c-0.567,0.447-1.135,0.447-1.261,1.271c-0.315,1.46-1.818,1.145-1.818,2.159
		c0,0.131,0.063,0.32,0.063,0.447c-1.576,1.324-2.779,2.516-4.229,3.588c-0.504,1.45-1.387,1.261-1.576,2.08
		c-0.126,0.504-0.567,0.441-0.883,0.82c-0.567,0.63-1.387,2.837-2.333,2.837c0.126-1.072,1.072-1.828,1.072-2.459
		c0-0.189-0.063-0.378-0.126-0.567c0.252-0.378,0.757-0.883,0.757-1.324s0.378-0.315,0.378-0.441l0.189-1.072
		c1.135-1.949,2.206-3.588,2.774-5.816c1.072-0.378,2.527-4.639,3.283-6.21l1.324-2.889c0,0.126,3.268-7.975,3.268-10.36
		c-0.189-0.378-0.567-1.319-0.567-1.697c0-0.32,0.189-0.573,0.189-0.888c0-0.63-0.757-1.576-0.757-1.765c0-0.131,0-0.32,0.063-0.447
		c-0.378-0.441-1.513-0.567-1.513-1.187l-1.124-0.441c-1.135,0.441-0.82-0.567-5.301,1.503c-0.252,0.126-0.315,0.441-0.63,0.51
		c-0.504,0.378-1.198,0.378-1.702,0.693c-0.189,0.126-0.126,0.567-0.378,0.567c-0.126-0.063-0.315-0.126-0.441-0.126
		c-0.504,0.252-0.756,0.82-1.198,1.198c-0.567,0.447-0.946,0.189-1.387,1.072c-0.441,0.441-2.333,1.198-2.333,1.886
		c0-0.063-2.143,2.574-3.404,3.016c-0.189,0.252-0.063,0.567-0.315,0.877c-0.888,0-1.266,1.445-1.897,1.949
		c-0.126,0.315-0.883,0.315-1.198,1.319l0.063,0.252c-0.441,0.31-1.387,1.319-1.765,1.445c-0.189,1.066-1.571,1.818-1.571,2.133
		c0,1.319-0.877,0.625-0.94,1.382c0,0.063-0.825,1.382-1.271,2.08c-0.126,0.189-0.378,0.126-0.504,0.315
		c-0.441,0.257-0.63,1.461-1.066,1.97c-0.378,0.384-1.198,0.83-1.261,1.334c-0.189,1.271-1.576,1.592-1.576,2.417
		c0,0.063,0.063,0.194,0.063,0.257c-0.126,0.315-0.562,0.573-0.877,1.072c-1.576,2.075-3.283,2.769-3.536,4.282
		c-0.063,0.252-0.693,0.378-0.82,0.63l0.063,0.252c-0.946,0.946-1.45,1.828-1.828,2.017c0.189-0.378,2.206-3.783,2.27-4.035
		c0.126-0.315,0.189-0.693,0.315-1.009c0.063-0.126,0.315-0.189,0.378-0.315c0.567-1.003,1.392-3.404,1.96-4.676
		c0.946-0.699,2.327-4.833,2.769-6.404c0.252-0.82,0.946-0.63,1.198-1.193c-0.189-0.063-0.441-0.126-0.441-0.378
		c0-0.252,0.441-0.693,0.567-0.94l-0.252-0.441c0.504-1.003,0.315-1.066,1.009-1.508c0-0.252-0.126-0.562-0.189-0.814
		c0.063-0.063,0.252-0.189,0.252-0.252c0.751-3.016,1.319-7.849,1.319-10.938c0-1.261-0.126-2.516-0.315-3.72
		c-1.003-0.883-0.378-1.45-1.382-2.522c-0.189-0.189,0-0.567-0.252-0.883c-0.315-0.504-0.946-0.757-1.261-1.198
		c0-0.126,0.063-0.252,0.063-0.378c0-0.189-2.643-2.275-3.651-2.401c0.252,0-2.086-1.629-3.157-1.629
		c-0.126,0-0.315,0.126-0.315,0.252c-0.126,0-0.189-0.126-0.189-0.252c-0.946,0.126-1.891,0.315-2.837,0.315
		s-2.143,0.809-3.593,0.809c-0.82,0-0.883,0.699-1.45,1.14c-0.252,0.194-0.63,0-0.82,0.257c-0.252,0.126-0.189,0.562-0.378,0.751
		c-0.693,0.625-1.765,1.003-2.333,1.697c-0.252,0.315-0.189,0.762-0.378,1.077c-0.441,0.693-1.203,1.135-1.707,1.765
		c-0.441,0.567-0.693,1.261-1.072,1.828c-0.063,0.063-0.378,0.063-0.504,0.194c-0.504,0.504,0.189,0.693-1.324,1.818
		c-0.126,0.189-0.441,1.266-0.63,1.266c0,0.063-0.063,0.189-0.063,0.189c0,0.126,0.063,0.252,0.063,0.378
		c-0.378,0.699-0.441,1.45-0.757,2.143l-0.315-0.063c-0.373,0.252-0.063,1.13-0.62,1.13l-0.126,1.571l-0.257,0.189
		c-1.072,3.452-2.023,6.971-2.516,10.612c-0.126,0.499-0.252,1.13-0.252,1.697c0,0.384,0.063,0.762,0.063,1.145
		c0,0.126-0.378,0.252-0.378,1.019c0,1.587,0.567,2.285,0.567,3.494c0,0.194-0.126,0.384-0.126,0.573
		c0-0.063,0.872,3.656,1.823,3.656c1.387,0,1.45-0.877,1.45-1.949c0-0.499,0.877-0.625,0.877-1.581c0-0.252-0.252-0.573-0.378-0.762
		c-1.13,0-1.13,1.592-1.886,1.592c-0.951,0-1.14-3.625-1.14-4.324c0.063-0.063,0.252-0.257,0.252-0.384
		c0-0.252-0.189-0.447-0.189-0.699c0-0.126,0.252-0.699,0.315-0.825c-0.126-0.063-0.189-0.194-0.189-0.32
		c0-0.189,0.252-0.252,0.252-0.636c0-0.252-0.189-0.441-0.189-0.693c0-0.252,0.384-0.688,0.384-0.814
		c0-0.252-0.131-0.441-0.131-0.63c0-0.126,0.257-0.063,0.257-0.441c0-1.629,0.315-3.515,0.693-5.085
		c0.189-0.877,0.946-1.503,0.946-2.448c0-0.189-0.063-0.31-0.121-0.499c0.494-0.252,0.935-1.76,0.998-2.327
		c0.126-1.13,0.567-1.319,1.009-2.133c0.504-0.883,1.009-4.04,2.9-5.227c0.567-1.644,1.96-3.157,3.157-4.355
		c0.126-0.126,1.702-2.023,1.828-2.023s0.252,0.063,0.378,0.063c0.315,0.005,0.252-0.562,0.441-0.751
		c1.198-1.203,2.648-1.014,4.035-1.644c1.387-0.63,2.963-0.441,4.413-0.693c0.126,0.441,0.82,1.072,1.261,1.198
		c0.693,0.189,0.504,0.951,1.261,1.014l0.32-0.063c0.063,1.513,1.45,2.017,1.639,2.963c0.315,1.765,0.757,3.536,0.757,5.353
		c0,1.581-1.135,10.255-2.143,10.318c-0.063,0.126-0.063,0.441-0.063,0.757v0.751c0,0.504-0.189,0.315-0.383,0.63l-0.378,0.814
		v0.189c0,0.189-0.063,0.252-0.315,0.315c-0.63,3.136-2.333,3.641-2.774,7.691c-0.126,0.762-0.82,1.145-1.072,1.781l-1.765,4.308
		c-0.063,0.315-1.702,3.084-2.143,3.84c-1.513,2.522-2.9,5.169-4.287,7.696l-1.009,2.08l-0.315,0.504
		c-0.883,1.702-1.576,3.53-2.59,5.169c-0.693,1.072-0.883,2.396-2.143,3.026c0,1.261-1.009,1.954-1.009,2.9l-1.261,2.143
		c-0.499,0.82-0.625,1.765-1.13,2.585l-0.504,0.252l-0.126,0.252c0,0.189,0,0.315,0.063,0.504c-0.252,0.504-1.014,1.702-1.014,1.639
		c0,0.126,0.126,0.252,0.257,0.252c-0.257,0.883-0.699,1.576-0.699,2.585c0,0.693,1.392,1.261,1.96,1.261
		c2.643,0,2.264-3.089,3.651-3.089C465.243,72.684,466.315,70.289,466.441,69.974 M380.771,23.511
		c-1.066-0.504-1.513-1.707-2.396-2.396c-0.573-0.436-1.014,0.189-1.014-0.946c-0.063,0-0.126,0.063-0.189,0.063
		c-0.499,0-2.075-2.201-2.637-2.201c-0.126,0-0.315,0-0.441,0.063c-0.447-1.392-1.329-0.452-2.086-1.271
		c-2.653-0.872-5.548-0.247-8.196-1.187c-0.063,0.252-0.252,0.252-0.504,0.252h-0.378c-0.567,0-1.077,0.247-1.581,0.373
		c-1.009,0.189-2.012,0.063-3.021,0.315c-0.063,0-2.39,0.946-2.39,1.203c-0.126,0.063-0.315,0.063-0.441,0.063
		c-0.252,0-0.504,0-0.757-0.063c-0.693,0.189-2.023,0.625-2.464,0.877c-0.252,0.189-0.504,0.751-0.883,0.94
		c-0.378,0.257-0.82,0.32-1.198,0.573c-0.315,0.252-0.693,1.009-1.072,1.009c-0.126,0-0.315-0.063-0.441-0.063
		c-0.315,0.063-0.189,0.504-0.63,0.567c-0.82,0.184-0.946,1.072-1.513,1.513c-0.378,0.315-0.82,0.315-1.198,0.63
		c-0.252,0.252-0.378,0.636-0.63,0.888c-0.378,0.31-0.883,0.31-1.198,0.625c-0.189,0.184-0.126,0.951-0.441,0.951
		c-0.189,0-0.315-0.063-0.504-0.063L342,26.852c0,0.058-0.063,0.184-0.063,0.184c0,0.126,0.063,0.252,0.063,0.378
		c-0.252,0.252-0.694,0.378-0.946,0.63c-0.504,0.447-0.63,0.951-0.883,1.518c-0.315,0.315-1.261,0.567-1.261,1.072
		c0,0.126,0,0.315,0.063,0.441c-0.315,0.315-2.464,2.023-2.464,3.021c0,0.693-2.08,2.08-2.08,3.914c0,0.189-1.198,1.702-1.261,2.143
		c-0.126,0.883-0.94,1.387-0.94,1.639c0,0.189,0.126,0.378,0.126,0.567c0,0.441-0.757,0.378-0.946,1.387
		c-0.063,0.32-0.315,0.194-0.315,0.32c-0.252,0.567-0.126,1.261-0.315,1.823c-0.063,0.252-0.63,1.508-0.63,1.639
		c0,0.189,0.063,0.378,0.063,0.567c0,0.252-0.567,0.441-0.63,0.82c-0.189,0.693-0.126,1.45-0.315,2.149
		c-0.63,2.448-1.508,4.97-1.508,7.56c0,1.135,0.189,2.143,0.315,3.278c0.126,1.072-0.063,2.27,0.252,3.341
		c0.315,1.072,1.261,1.639,1.261,2.9c0,0.504,0.315,0.378,0.315,0.567c0,0.126,0,0.189-0.063,0.315
		c-0.383-0.189,0.688,0.189,0.688,0.946c0,0.126,0,0.315-0.063,0.441c0.189,0.126,0.693,0.126,0.693,0.378l-0.126,0.378
		c0.567,1.581,3.977,2.464,3.977,4.04h0.31c1.072,0,1.319,0.625,1.823,0.625c-0.315,0,1.135,0.315,1.828,0.63
		c0.946,0.373,1.702,0.688,2.779,0.688c2.206,0,4.413-0.499,6.619-0.688c0.757-0.063,0.694-0.877,1.513-0.94
		c0.63-0.063,2.207-0.315,2.711-0.567c0.189-0.126,0.441-0.504,0.63-0.63c0.315-0.189,0.82-0.063,1.198-0.315
		c0.126-0.315-0.063-0.441,0.32-0.567c1.702-0.504,3.026-2.716,4.219-3.977c0.252-0.315,1.571-1.513,1.571-1.828
		c0.946,0,1.203-1.198,1.77-1.765c0.378-0.378,2.143-1.45,2.143-1.891v-0.378c0-0.252,0.063-0.252,0.63-0.441
		c0.32-0.126,0.447-2.459,1.261-2.459c0.121,0,0.247-0.063,0.247-0.189s-0.063-0.252-0.063-0.378
		c0.189-0.378,0.383-0.63,0.636-0.946c0.825-1.261,0.762-3.473,1.828-4.544c0.31-1.387,0.247-2.832,0.247-4.224
		c0.252-0.189,3.22-1.823,3.347-1.823c1.009,0,1.644-1.198,2.149-1.198c0.373-0.189,0.814-0.063,1.193-0.315
		c0.189-0.063,0.189-0.636,0.504-0.636c0.126,0,0.315,0,0.436,0.063c0.567-0.625,0.252-0.625,1.203-0.625
		c0.189-0.126,0.189-0.504,0.315-0.625c0.189-0.126,0.883-0.126,1.198-0.252c0.257-0.378,3.593-2.527,3.903-2.779
		c0.126-0.063,1.198-0.883,1.45-0.883h0.378c0.189-0.126,0.189-0.504,0.315-0.63c0.252-0.189,0.883-0.063,1.198-0.252
		c0.252-0.189,0.378-0.757,0.63-0.946c0.441-0.315,2.464-0.946,3.347-1.513c1.576-0.946,3.593-1.135,5.106-2.086
		c2.206-1.324,5.106-1.891,7.628-1.891c1.009,0,2.08,0.063,3.026,0.378c0.63,0.189,2.59,0.315,3.031,0.567
		c0.126,0.063,0.126,0.63,0.315,0.63h0.883c0.315,0,0.189,0.252,0.315,0.315c0.63,0.378,3.079,0.825,3.079,1.833
		c0,0.82-0.946,1.009-0.946,1.513c0,0.693,0.82,0.757,1.324,0.757c1.009,0,2.08-0.504,2.585-1.387
		c-1.513-1.954-4.035-3.094-6.294-3.788c-2.143-0.63-5.049-1.629-7.759-1.629c-4.224,0-7.943,1.881-11.6,3.651
		c-1.513,0.757-2.968,1.261-4.355,2.08l-1.513,0.883c-1.45,0.883-2.579,1.702-3.84,2.396c-3.152,1.707,0,0.315-3.72,2.149
		c-0.383,0.504-0.699,0.567-1.203,0.883l-0.94,0.625c-0.877,0.625-1.886,0.688-2.711,1.198c-1.387,0.82-2.9,1.833-4.224,1.833
		c-0.567,0-0.63-1.518-0.94-1.833c-0.441-0.447-2.086-0.762-2.086-1.513c-0.189,0-0.441,0.063-0.757,0.063
		c-0.82,0-1.072-0.436-1.891-0.436c-1.581,0-3.656,0.31-4.98,1.187c0,0.888-0.625,0.888-0.625,1.518c0,0.951,0.94,3.467,2.138,3.467
		c0.121,0,0.184,0,0.31-0.063c0.567,0.751,1.513,0.94,2.401,0.94c1.324,0,2.963-0.436,4.161-1.003l0.447,0.063
		c0.189-0.126,0.252-0.31,0.567-0.31c0.126,0,0.189,0,0.315,0.063c0,2.637-0.441,5.537-1.518,6.929
		c-0.126,0.189-0.625,0.567-0.625,0.757c0,0.126,0.063,0.189,0.063,0.315c-0.063,0.189-0.378,0-0.378,0.315
		c0,0.126,0,0.315,0.063,0.441c-1.266,2.333-2.59,4.161-4.55,6.052c-4.339,4.287-9.073,9.525-15.629,9.525
		c-0.504,0-1.009-0.441-1.45-0.441c-0.126,0-0.189,0.126-0.189,0.252c-0.757-0.063-1.702-0.315-2.396-0.63
		c-0.252,0-0.441,0.126-0.699,0.126c-0.189,0-2.963-1.513-3.278-2.779c-0.126-0.441-0.693,0-0.693-0.504
		c0-0.126,0-0.315,0.063-0.441c-1.198-1.513-2.143-3.404-2.143-5.233c0-0.063-0.378-0.441-0.378-1.009
		c0-0.63,0.063-1.261,0.126-1.891c-0.126-0.189-0.63-0.189-0.63-0.441c0-0.315,0.189-0.757,0.315-1.072
		c-0.441,0-0.441-0.693-0.441-1.198c0-1.135,0.315-2.206,0.441-3.347c0.189-1.387,0.126-2.9,0.567-4.224
		c1.576-4.786,3.278-11.09,3.341-11.216c0.126-0.189,0.51-0.126,0.636-0.315c0.252-0.441,0.126-1.009,0.315-1.513
		c1.072-0.378,0.504-0.757,0.883-1.513c0.189-0.126,0.693-0.252,0.693-0.504c0-0.126-0.063-0.252-0.063-0.378
		c0.757-1.455,1.198-3.031,2.396-4.219c0.441-0.504,0.378-0.951,0.63-1.518c0.063-0.252,0.757-0.252,0.63-0.441l0.252-0.441
		c0.567-1.387,2.774-2.333,2.774-3.152c0-0.131-0.063-0.257-0.063-0.384c0-0.378,1.324-1.072,1.576-1.324
		c0.504-0.499,0.693-1.25,1.198-1.823c1.261-0.378,1.702-1.455,2.711-2.143c0.252-0.189,0.63-0.063,0.883-0.315
		c0.252-0.252,0.063-0.688,0.32-0.883c0.252-0.189,0.693-0.126,0.946-0.315c0.441-0.315,0.567-0.888,1.261-0.888
		c0.252,0,0.504,0.063,0.757,0.063c0.504,0,0.504-0.373,0.693-0.688c0.315-0.504,2.138-0.378,2.7-0.567
		c1.897-0.636,3.22-1.014,5.238-1.014c1.513,0,2.963,0.441,4.471,0.441c0.315,0.005,0.573,0.005,0.888-0.058
		c0.378,0.757,1.009,1.072,1.828,1.198c0-0.063,1.455,1.003,1.833,1.003c0.126,0,0.189,0,0.315-0.063
		c0.189,1.208,3.336,3.41,4.219,4.544c0.063,0.126,1.266,1.261,1.266,1.76c0,1.072-0.441,2.086-0.441,3.094
		c0,0.441,0.189,0.82,0.189,1.261c0,0.378-0.063,0.757-0.063,1.135c0,0.189,0.315,0.315,0.315,0.441c0,0.51-0.252,1.014-0.252,1.513
		c0,0.252,0.063,0.562,0.252,0.751c0.126,0,0.189-0.063,0.252-0.063c0.499,0,0.247,0.946,0.94,0.946c0-0.883,0.252-1.508,0.883-2.07
		h0.63c0.625,0,1.256-0.063,1.256-0.888c0-0.946-0.189-1.828-0.189-2.774c0-0.567,0.315-1.009,0.441-1.513
		c0.189-0.699,0.441-3.593,0.883-3.909c0-0.063,0.063-0.189,0.063-0.189c0-0.126,0-0.315-0.063-0.441
		c0.189-0.441,0.63-1.455,0.946-1.828c0.126-0.499,0.063-1.009,0.252-1.518c0.315-0.877,1.135-1.755,1.261-2.711
		c0.126-1.25,2.149-3.021,2.149-3.588c0-0.189-0.063-0.441-0.063-0.63c-0.189,0.315,1.954-2.648,4.854-5.422
		c0.567-0.567,3.089-2.779,3.783-2.842c0.126,0.063,0.252,0.126,0.378,0.126c0.252,0,0.378-0.504,0.694-0.63
		c0.378-0.189,1.828-0.126,1.828-0.378V3.52c0.252-0.063,1.009-0.378,1.261-0.378c1.198,0,2.711,0.63,3.72,1.324
		c0.189,0,0.378-0.063,0.567-0.063c0.378,0,0.567,0.693,0.825,0.946c0.315,0.315,0.883,0.315,1.198,0.636
		c1.135,1.261,3.026,5.296,3.026,6.935c0,1.455-0.252,2.779-0.567,4.219c-0.063,0-0.126-0.063-0.189-0.063
		c-0.504,0-0.567,0.825-0.757,1.014c-0.126,0.126-0.441,0.126-0.567,0.252c-0.315,0.315,0,0.883-0.63,0.946
		c-0.883,0.126-1.198,1.077-1.833,1.518h-0.315c-0.63,0.877-1.261,0.877-2.08,1.25v0.252c-0.063,0.063-0.126,0.063-0.189,0.063
		c-0.126,0-0.315,0-0.441-0.063c-0.378,0.126-1.261,0.951-1.387,0.951s-0.315,0-0.441-0.063c-2.648,1.266-3.341,1.392-5.296,1.392
		h-2.27c0,0.184,1.513,0.872,1.954,1.061c0.315,0,5.611-1.124,5.926-1.25c0.126-0.063,0.441-0.447,0.63-0.573
		c0.883-0.441-0.252,0.252,2.711-1.198c0.189-0.063,0.378-0.636,0.82-0.636h0.378c1.707-1.697,4.597-3.588,4.597-4.791
		c0-0.126,0-0.252-0.063-0.378c1.014-0.625,1.324-1.187,1.324-2.385c0-1.329-0.436-4.166-0.751-4.418c0-0.126,0-0.315,0.063-0.441
		c-1.319-1.324-0.751-1.639-1.823-2.396c-0.252-0.252-0.126-0.63-0.315-0.946V6.3c-0.063,0-1.198-1.329-1.513-1.581
		c-1.77-1.45-4.797-2.133-6.436-2.133c-2.27,0-5.863,1.124-6.683,1.944l-0.63,0.378c-0.441,0.252-0.946,0.441-1.387,0.757
		c-0.378,0.252-0.567,0.636-0.946,0.888c-0.378,0.252-0.82,0.378-1.198,0.63c-2.143,1.576-4.166,4.665-5.175,6.178
		c-2.333,2.837-3.651,6.047-4.219,7.444C382.158,21.052,381.338,23.385,380.771,23.511 M361.349,46.516
		c0.441-0.063,0.951-0.063,1.392-0.063c2.206,0,4.733,0.762,4.986,3.347c-1.203,0.762-2.968,1.203-4.355,1.203
		c-2.023,0-2.968-0.762-2.968-2.842C360.403,47.084,361.159,47.273,361.349,46.516 M279.656,44.946c0,1.387-2.968,2.774-3.914,3.656
		l-0.946,0.883c-0.252,0.189-0.693,0.126-0.883,0.315c-0.126,0.126-0.189,0.504-0.315,0.63c-0.315,0.257-1.135,0.384-1.513,0.573
		c-0.82,0.504-0.82,0.82-1.77,0.82c-0.378,0-1.009,0-1.009-0.504c0-0.888,0.946-1.833,0.946-2.401c0-0.315,0.441-0.693,0.63-0.946
		c1.203-2.08,1.77-2.711,3.662-4.229c0.252-0.252,0.315-0.63,0.567-0.883c0.315-0.252,0.63-0.126,0.946-0.315
		c0.252-0.189,0.441-0.693,0.82-0.693h0.315c0.189,0,0.378,0,0.378-0.247C279.088,42.487,279.656,42.424,279.656,44.946
		 M301.017,43.112c0-0.063,0.063-0.184,0.063-0.184c0-0.189-0.441-0.247-0.567-0.247c-0.63,0-1.765,1.25-2.522,1.818
		c-1.387,1.077-2.837,2.086-4.161,3.22l-0.189-0.063c-2.017,1.513-8.006,5.742-10.213,5.742c-0.378,0-0.693-0.068-1.009-0.257
		c0.441-3.467,3.026-7.691,3.026-10.596c-0.63-0.504-1.45-0.693-2.206-0.693c-1.072,0-1.954,0.378-2.648,1.261
		c-0.184-1.634-2.516-2.259-3.903-2.259c-2.08,0-5.422,1.187-6.12,2.007c-2.769,1.266-4.786,4.481-6.357,6.94
		c0,1.014,0.189,2.459,1.76,2.459c0.252,0,0.504-0.063,0.757-0.063c0.504,0.562,3.084,0.688,4.156,0.688
		c1.14,0,0.762-0.31,1.518-0.688c1.455,0,0.762-0.31,1.518-0.877c0.252-0.189,0.63-0.126,0.883-0.315
		c0.757-0.51,2.27-2.59,3.152-2.59l0.189,0.189c-0.315,0.567-0.315,1.324-0.315,1.954c0,0.636,0,1.387,0.315,1.954
		c1.886,1.072,3.961,1.576,6.042,2.138c0.315-0.625,1.261-0.436,1.513-0.625c0.126-0.126,0.189-0.441,0.315-0.625
		c0.315-0.131,1.009-0.131,1.198-0.257c1.891-1.445,4.728-2.327,6.556-4.161c0.883-0.189,1.954-1.576,2.585-1.576l0.189-0.504
		c1.198-0.82,1.576-1.324,2.522-2.149L301.017,43.112z M257.391,32.91c0.946-1.261,1.513-2.774,2.08-4.287
		c-0.126,0.063-0.315,0.063-0.441,0.063c-0.567,0-1.009-0.378-1.576-0.378c-0.946,0-1.198,1.639-1.198,2.333
		C256.256,31.523,256.509,32.595,257.391,32.91 M262.876,50.625l-0.252,0.126c-0.252,0-0.315,0.567-0.441,0.757
		c-0.252,0.315-0.946,0.315-1.261,0.63l-1.198,1.261c-0.315,0.315-0.946,1.387-1.135,1.513c-0.252,0.189-0.757,0.126-0.946,0.315
		c-0.126,0.126-0.126,0.378-0.315,0.567c-0.252,0.252-0.63,0.126-0.883,0.315c-0.757,0.504-1.828,1.891-2.396,2.143
		c-0.315,0.189-0.63,0.126-0.946,0.315c-0.252,0.189-0.378,0.63-0.63,0.883c-0.378,0.441-2.711,0.883-3.278,0.883
		c-0.378-0.567-0.504-1.261-0.504-1.891c0-2.143,1.009-6.241,2.017-7.754c0.126-0.126,1.198-3.846,1.513-4.539
		c0.946-0.504,1.513-3.656,1.513-4.854c-0.378-0.189-0.82-0.252-1.261-0.252c-1.639,0-2.459,1.135-2.963,1.135
		c-0.189,0-1.634,2.9-1.261,2.143c-1.13,1.702-2.012,3.53-2.706,5.422h-0.315c0,2.711-1.445,5.043-1.445,7.754
		c0,3.336,2.453,3.961,4.844,3.961c1.261,0,2.396-0.499,3.53-0.499c0.693-0.441,3.783-2.643,3.972-3.147
		c1.324,0,1.891-1.576,2.711-1.765c0.567-0.063,2.017-1.954,2.9-2.963c0.504-0.504,1.198-0.693,1.702-1.198
		c0-0.567,0.63-1.009,1.009-1.261l0.63-0.378c0.063,0,0.063,0,0.063-0.063c0.252,0,0.378-0.252,0.378-0.504h0.252
		c0.126,0,0.252-0.378,0.378-0.441c0.757-0.567,5.422-3.909,5.422-4.665C270.756,44.51,263.632,49.616,262.876,50.625
		 M224.546,34.854c0.641,0.126,0.956,0.504,0.956,1.135c0,1.009-0.567,2.143-0.946,3.094c-0.252,0-0.315-0.194-0.315-0.447
		c0-0.126,0.063-0.315,0.063-0.441s0-0.252-0.063-0.315h-0.252c-0.074-0.378-0.074-0.693-0.074-1.072
		C223.916,36.177,223.979,35.232,224.546,34.854 M223.038,59.382c0.189-0.189,0.63-0.63,0.877-0.63
		c0.063,0.063,0.063,0.189,0.063,0.315c0,0.951-0.373,4.471-0.625,5.416c-0.567,0.131-1.135,3.346-1.513,4.229
		c-1.949,4.224-4.093,4.791-4.282,5.485c-0.573,0.126-0.762,0.636-1.203,0.888c-1.261,0.63-3.152,1.387-4.917,1.387
		c-0.315,0-0.504,0-0.504-0.441c-0.126,0.063-0.315,0.063-0.441,0.063c-0.063,0-0.126,0-0.189-0.063v-0.252
		c-0.126-0.063-0.315-0.063-0.441-0.063c-0.252,0-0.315-0.504-0.441-0.63c-0.951-0.951-1.581-0.573-1.581-2.401
		c0-0.378,0.567-0.567,0.63-0.946c0.137-0.504,0.074-1.702,0.32-2.08c0.126-0.189,0.504-0.126,0.625-0.315
		c-0.063-0.126-0.063-0.315-0.063-0.441c0-0.315,0.504-0.252,0.693-0.441c-0.063-0.126-0.063-0.315-0.063-0.441
		c0-0.441,0.699-0.504,0.951-0.82c0.189-0.252,0.063-0.567,0.315-0.883c1.576-2.023,4.287-3.725,6.556-4.67l0.883-0.378l0.126-0.063
		c0.504-0.063,1.707-0.809,3.031-1.508C222.219,59.509,222.66,59.572,223.038,59.382 M217.553,47.089
		c0.756-0.757,2.905-1.324,4.292-3.089c2.207,3.215,1.954,9.651,2.396,13.549c-0.378,0.32-2.459,1.203-2.08,1.203
		c-0.946,0-0.63,0.126-0.946,0.315c-2.212,1.387-2.842,1.203-2.905,1.203c-0.504,0-2.9,1.503-3.467,1.818
		c-1.954,1.135-4.224,2.716-5.427,4.544c-0.184,0.315-0.499,1.198-0.872,1.198v0.504c0,0.315-0.51,0.189-0.636,0.378
		c-0.189,0.378-0.005,1.513-0.63,1.513v0.504c-0.373,0.693-0.562,1.45-0.562,2.27c0,0.378,0.315,0.063,0.315,0.504
		c0,0.189-0.063,0.378-0.063,0.567c0.688,1.897,3.84,3.147,5.164,3.147c0.252,0,0.441-0.126,0.693-0.126
		c0.063,0,0.189,0.063,0.252,0.126c0.63-0.373,0.82-0.31,1.513-0.31c0.63,0,1.198-0.436,1.765-0.625
		c3.788-1.324,5.553-3.347,8.516-6.31c0.378-0.441,0.441-1.009,0.63-1.513c0.058-0.252,0.625-0.189,0.625-0.504
		c0-0.126-0.063-0.315-0.063-0.441c0-0.189,0.504-0.946,0.63-1.198c1.198-3.283,2.012-5.984,2.138-9.336
		c0.63-0.126,0.693-0.688,1.203-0.94c1.261-0.63,3.278-1.319,4.854-2.39c0.315-0.252,1.387-0.378,1.828-0.63
		c0.315-0.189,0.441-0.636,0.82-0.636c0.252,0,0.504,0.126,0.757,0.126c0.315,0,1.644-1.387,2.338-1.639l0.189,0.126l0.252-0.252
		c0.883-0.315,1.135-0.378,1.702-1.072l0.373,0.063c0.315-0.126,0.373-0.252,0.373-0.378V48.98c1.009,0,0.883-0.567,1.513-1.009
		c0.252-0.189,0.63-0.063,0.946-0.252c1.198-0.693,2.08-2.143,3.215-2.963l2.774-1.891c0.063-0.252,0.063-0.441,0.063-0.693
		c0-0.126,0-0.378-0.189-0.378c-1.198,0-2.522,2.017-3.53,2.774c-2.396,1.702-5.29,3.593-7.555,5.296
		c-1.765,0.441-3.473,1.891-5.301,2.585l-1.513,0.573c-1.009,1.009-1.009,0.63-2.08,0.946c-1.135,0.315-1.828,1.198-3.031,1.198
		c-0.189-2.653-0.373-5.868-0.94-6.688v-0.63c0-0.252-0.63-1.387-0.883-2.143l-0.252-0.63c-0.063-1.702-1.581-3.089-1.581-4.791
		c0-1.261,1.581-2.275,1.581-3.536c-0.005-0.189-0.131-0.693-0.131-1.009c0-0.126,0-0.189,0.063-0.252
		c-0.877-0.877-1.13-1.503-2.459-1.503c-2.012,0-3.394,2.385-3.394,4.213c0,1.455,0.504,2.779,0.693,4.229
		c-0.883,1.765-2.333,2.522-3.72,3.72c-0.441,0.378-0.63,0.126-0.951,0.441L217.553,47.089z M150.98,102.257
		c0.005-1.639,0.315-3.278,0.693-4.86c0.063-0.252,0.315-0.63,0.315-0.82c0-0.126,0-0.315-0.063-0.441
		c0.189-0.126,0.504-0.126,0.63-0.252c0.252-0.252,0.378-0.946,0.63-1.261c0.441-0.63,2.711-2.774,2.711-3.278
		c0-0.63,0.567-0.63,0.883-0.946c0.378-0.378,1.576-2.143,2.017-2.143c0.126,0,0.315,0,0.441,0.063
		c1.387-1.387,4.224-3.72,6.94-4.539c-0.189,1.513-2.716,4.287-2.716,5.296c0,0.252-0.441,1.135-0.63,1.135
		c0,0.189,0.063,0.315,0.063,0.504c-0.504,0.63-0.82,1.135-1.261,1.828c-0.315,0.441-0.252,1.072-0.567,1.513
		c-0.126,0.252-0.946,0.378-0.946,1.009c0,0-0.693,1.765-1.198,2.333c-0.126,0.189-0.504,0.126-0.63,0.252
		c-0.189,0.189-0.063,0.693-0.252,0.951c-0.504,0.693-1.513,1.261-2.143,1.828c-0.693,0.693-1.324,1.639-2.396,1.765
		c-0.63,0.063-0.946,0.693-1.639,0.693c-0.315,0-0.63-0.126-0.883-0.315v-0.315L150.98,102.257L150.98,102.257z M159.806,46.27
		c1.891-0.126,4.923-2.905,4.923-2.779c0.567,0,0.315-0.946,1.135-0.946c0.441,0,2.396-1.387,3.783-1.387
		c0.189,0,0.378,0.063,0.504,0.252c-0.252,2.459-2.08,3.783-3.341,5.742v0.315c0,0.567-2.963,3.909-3.662,4.602
		c0,0.126,0.063,0.252,0.063,0.378c0,0.315-0.757,0.82-0.946,1.072c-0.883,1.135-0.757,2.648-1.828,3.593
		c-0.252,0.883-0.63,2.396-0.63,3.341c0,1.455,1.576,4.539,3.089,4.854c0.189,0.063,0.189,0.063,0.189,0.126v0.063
		c0,0.184,1.14,0.436,1.581,0.436c1.072,0,2.711-1.629,3.656-2.448c0.189-0.189,0.63-0.126,0.946-0.315
		c0.693-0.504,1.072-1.329,1.765-1.77l1.508-0.946c0.252-0.189,0.693-0.126,0.946-0.315c0.126-0.126,0.126-0.693,0.315-0.883
		c0.441-0.441,2.585-1.009,3.026-1.828c0.63-1.135,1.828-2.017,2.459-2.08c-0.441,1.576-1.261,2.396-1.576,4.287
		c-0.504,3.031-2.774,4.544-2.711,6.299c-0.189,0.189-0.504,0.378-0.63,0.567s-0.189,1.513-0.378,1.513
		c-0.063,0-0.252,0.063-0.252,0.189l-1.198,2.837c-0.946,2.207-2.075,3.157-2.075,3.914c-0.82,0.946-0.441,3.089-1.513,3.341
		c-0.063,0.315-0.189,0.189-0.315,0.315c-0.189,0.315-0.441,1.576-0.63,1.765c-0.063,0.063-0.504,0.126-0.567,0.252
		c-0.252,0.252-0.126,0.693-0.315,0.946c-0.441,0.567-2.333,1.45-3.026,1.828c-0.252,0.126-0.378,0.441-0.63,0.567
		c-0.189,0.126-0.762,0.252-0.888,0.315l-1.513,1.261c-0.441,0.378-1.072,0.567-1.513,0.946l-1.639,1.198
		c-1.387,1.009-2.9,2.711-3.846,3.909c-0.189,0.252-0.063,0.63-0.315,0.946c-0.315,0.441-0.946,0.504-1.198,0.883
		c-0.189,0.252-0.126,0.63-0.315,0.946s-1.508,1.639-1.508,1.891v0.378c0,0.315-0.441,1.135-0.567,1.513
		c-0.252,0.82-0.315,1.702-0.315,2.527c0,0.693,0.499,2.826,1.445,2.826c0.252,0,0.504-0.063,0.757-0.063
		c0.63,0,1.198,0.063,1.828,0.063c1.324,0,2.396-0.746,3.215-1.313c0.378-0.189,0.82-0.126,1.198-0.315
		c0.567-0.252,0.757-0.883,1.261-1.198c0.252-0.189,0.63-0.063,0.883-0.252c0.252-0.189,0.378-0.699,0.63-0.951
		c0.883-0.82,1.954-1.513,2.716-2.396c0.378-0.441,0.504-1.072,0.883-1.513c0.883-1.009,1.261-1.072,2.143-2.459
		c0.567-0.883,1.576-2.459,1.576-2.711c0-0.063-0.063-0.189-0.063-0.315c0.189-0.189,0.504-0.378,0.63-0.567
		c0.378-0.567,0.757-3.278,1.576-3.278c0.126,0,0.126-0.189,0.126-0.315v-0.315c0-0.82,1.445-2.149,1.571-2.401
		c0.63-1.009,0.567-2.963,2.08-3.215c0.757-0.126,0.567-0.946,1.261-0.946h0.252c0.567-0.247,1.072-0.625,1.576-0.935
		c4.35-2.842,9.209-4.986,13.428-8.264c0.946-0.693,1.702-1.644,2.648-2.401c0.63-0.504,1.513-0.757,2.143-1.261
		s1.576-1.944,2.396-2.07c0.82-0.126,0.757-0.82,1.198-1.198c0.378-0.32,0.883-0.32,1.261-0.636c0.315-0.252,0.567-0.63,0.883-0.883
		c1.828-1.639,3.215-2.017,5.737-4.539c0.315,0,1.576-1.891,2.459-2.522c0.315-0.252,4.161-3.157,4.161-3.347
		c0-0.252,0-0.567,0.252-0.567c0,0,0.126,0,0.189,0.063c0.82-0.82,2.9-2.007,3.53-2.643c1.261-1.261,2.522-2.968,3.909-3.788
		c0.063-0.31,0.063-0.562,0.252-0.814c-0.252-0.121-0.504-0.121-0.757-0.121c-0.063,0-1.45,1.503-1.954,1.692l-0.378,0.383
		l-0.252-0.063c0,0.189-0.063,0.441-0.189,0.63l-0.315-0.126c-0.252,0.252-1.198,1.198-1.954,1.954c-0.63,0-1.261,1.135-1.828,1.445
		c-0.504,0.315-1.009,0.567-1.45,1.009c-0.252,0.252-0.315,0.63-0.441,0.757c-0.693,0.567-1.576,1.198-2.333,1.707
		c-1.387,0.946-2.333,2.396-3.593,3.404c-2.396,1.891-4.791,3.656-7.187,5.485c-0.378,0.315-1.45,1.455-1.765,1.518
		c-0.946,0.252-2.27,1.891-2.143,1.765c-0.441,0.247-1.072,1.439-1.513,1.503c-0.567,0.126-1.135,0.883-1.513,0.883
		c-0.441,0-3.525,3.094-4.156,3.094c-1.702,0-2.396,2.143-3.467,2.143c-0.252,0.567-2.779,2.143-3.283,2.143
		c-0.883,0-0.504,0.883-1.576,0.883c-0.441,0.252-0.82,0.504-1.198,0.757l-0.378,0.252c-0.063,0.063-0.126,0.126-0.126,0.189
		c-0.757,0-1.702,1.14-1.954,1.14c-0.063,0.126-1.009,0.315-1.198,0.378c1.513-2.59,2.9-5.238,4.098-8.012l0.441-1.009l0.063-0.126
		c0-0.315,0.252-0.126,0.315-0.252c0.63-1.014,0.63-2.338,1.198-3.341c0.567-1.003,1.324-2.201,1.639-3.341
		c0.252-0.063,0.757-1.828,0.946-2.143c0.315-0.504,1.707-3.215,1.707-3.72c0-0.189-0.063-0.315-0.063-0.504h0.252
		c0-0.063-0.063-0.189-0.063-0.252c0-0.378,0.567-0.378,0.757-0.63c0.189-0.252,1.261-2.527,1.261-2.653s-0.063-0.315-0.063-0.378
		c0.189-0.252,0.441-0.378,0.63-0.63c0.883-1.45,2.327-3.588,2.327-5.732c-0.252,0-0.562-0.573-0.688-0.573
		c-0.063,0-0.126,0.126-0.126,0.189c-0.252-0.063-1.261-0.378-1.45-0.378c-0.315,0-0.315,0.252-0.63,0.252
		c-0.126,0-0.252,0-0.378-0.063c-2.08,0.951-2.333,2.968-3.662,4.539c-0.441,0.567-1.009,1.009-1.513,1.513
		c-0.378,0.378-0.504,1.135-0.883,1.513c-0.883,0.762-1.702,1.266-2.396,2.212c-1.576,0.757-2.711,2.522-4.35,3.593
		c-1.261,0.883-2.585,1.828-4.156,2.648c-1.828,0.946-3.972,3.346-3.656,3.031c-0.126,0.126-1.639,0.883-1.765,0.883
		c-0.252,0-0.441-0.126-0.63-0.252c0.567-1.897,0.757-3.977,2.08-5.49c0.063-0.063,0.063-0.126,0.063-0.252
		s-0.063-0.252-0.063-0.315c0.126-0.504,0.693-0.315,0.693-0.883c0-0.126-0.063-0.189-0.063-0.378
		c0.126-0.252,0.441-0.315,0.567-0.567c0.63-0.946,4.098-7.57,4.66-7.57c0.063,0,0.252,0,0.315-0.121l-0.189-0.373
		c1.072-1.077,1.324-2.779,1.324-2.464c0-0.126-0.063-0.252-0.063-0.378c0.252-0.825,0.63-1.644,0.63-2.516
		c0-2.338-2.706-2.837-4.534-2.837c-0.946,0-3.783,0.872-4.539,1.445c-0.441,0.315-0.757,0.82-1.198,1.203
		c-0.699,0.557-1.518,0.872-2.149,1.503S160.5,45.76,159.806,46.27 M141.083,28.991c0-0.126-0.063-0.315-0.063-0.441
		c0-0.693,0.636-1.828,1.455-1.828c0.189,0,0.567,0.126,0.757,0.189c-0.315,2.464-1.707,3.599-3.089,5.427
		c-0.252-0.063-0.32-0.252-0.32-0.441c0-0.441,0.315-1.891,0.63-2.585C140.578,29.117,140.894,29.117,141.083,28.991
		 M126.966,46.459c0.441-0.378,2.27-1.009,2.27-1.513c0.063-0.063,0.126-0.126,0.189-0.189l3.593-2.779
		c1.072-0.82,1.891-2.138,3.152-3.021c0.252-0.184,0.567-0.31,0.751-0.562c1.639,0.688,2.143,1.692,4.161,1.818
		c-0.883,1.324-2.333,2.333-3.341,3.593l-1.513,1.833c-0.567,0.63-1.13,1.387-1.508,2.143c-0.441,0.883-0.567,2.648-1.198,3.278
		c-0.441,0.441-0.63,2.333-0.63,2.963c0,0.693,0.189,1.392,0.504,2.023c-0.063,0-0.126,0.063-0.126,0.126
		c0,0.063,1.513,2.264,3.966,2.889l0.757,0.252c0.189-0.063,0.315-0.315,0.378-0.441c2.396,0,4.733-1.13,6.872-2.07
		c0.504-0.194,1.45-0.956,1.702-0.956c0.126,0,0.315,0.063,0.441,0.063c0.63,0,1.261-1.003,1.828-1.256
		c0.252-0.121,0.757-0.121,0.883-0.247c0.441-0.315,1.009-0.567,1.513-0.946c0.504-0.315,0.757-0.888,1.198-1.203
		c0.946-0.757,2.086-1.198,3.094-1.954c0.441-0.315,0.757-0.757,1.198-1.072c1.513-1.135,3.656-2.27,4.917-3.656
		c0.184-0.189,0.184-0.504,0.499-0.567c-0.063-0.252-0.189-0.946-0.499-0.946c-0.315,0-0.252,0.441-0.252,0.63h-0.189
		c-0.63,0-0.315,0.504-1.009,0.63c-0.693,0-2.08,2.396-2.9,2.396c-0.252,0-2.459,1.828-2.711,2.143
		c-0.126-0.063-0.315-0.063-0.447-0.063c-0.315,0-0.252,0.441-0.504,0.63c-0.378,0.252-1.198,0.126-1.198,0.82l-0.378,0.126
		c-1.135,0.315-3.026,2.464-3.404,2.464c-0.126,0-0.189-0.126-0.315-0.126c-0.252,0-0.378,0.504-0.441,0.693h-0.63
		c-1.009,0.499-2.396,0.499-3.278,1.198c-1.382,1.072-3.593,1.891-5.233,1.891c-0.693,0-0.82-0.757-0.82-1.261
		c0-1.707,1.765-3.725,1.765-5.112c0-0.693,0.252-0.441,0.378-0.63c0.441-0.63,0.567-1.702,0.951-2.459
		c0.441-0.946,0.82-1.765,1.198-2.711c1.072-0.693,2.706-3.347,2.706-3.536V41.47c0.946-0.315,0.82-1.009,0.946-1.886
		c-1.576-0.441-3.336-0.94-4.98-0.94c-0.378,0-0.757,0-1.135,0.063c0-0.063,0.063-0.189,0.063-0.189
		c0-0.504-0.757-0.567-0.757-2.086c0-1.954,1.387-2.396,1.387-2.711c0-0.126-0.063-0.315-0.063-0.441
		c0-0.189,2.149-1.828,2.149-2.459c0-0.946,1.886-1.135,1.886-2.968c0-0.189-0.126-0.693-0.126-1.009c0-0.126,0-0.189,0.063-0.252
		c-0.63-0.814-3.404-1.25-3.53-1.25c-1.387,0-2.206,1.066-2.585,1.25c-0.252,0.189-0.63,0.126-0.883,0.315
		c-0.504,0.378-0.82,1.639-1.823,2.401v0.63c-0.315,0-0.946,1.828-0.946,3.467c0,1.387,0.252,2.837,0.757,4.166
		c-0.82,0.567-1.261,1.382-2.017,2.012c-2.396,2.012-7.061,6.052-7.061,6.619C126.651,46.333,126.903,46.459,126.966,46.459
		 M110.134,44.946c0,1.387-2.963,2.774-3.909,3.656l-0.951,0.883c-0.252,0.189-0.693,0.126-0.883,0.315
		c-0.126,0.126-0.189,0.504-0.315,0.63c-0.315,0.257-1.135,0.384-1.513,0.573c-0.82,0.504-0.82,0.82-1.765,0.82
		c-0.378,0-1.009,0-1.009-0.504c0-0.888,0.946-1.833,0.946-2.401c0-0.315,0.441-0.693,0.63-0.946
		c1.198-2.08,1.765-2.711,3.656-4.229c0.252-0.252,0.315-0.63,0.567-0.883c0.32-0.252,0.636-0.126,0.951-0.315
		c0.252-0.189,0.441-0.693,0.82-0.693h0.315c0.189,0,0.378,0,0.378-0.247C109.567,42.487,110.134,42.424,110.134,44.946
		 M131.5,43.112c0-0.063,0.063-0.184,0.063-0.184c0-0.189-0.441-0.247-0.567-0.247c-0.63,0-1.765,1.25-2.522,1.818
		c-1.387,1.077-2.837,2.086-4.161,3.22l-0.189-0.063c-2.017,1.513-8.006,5.742-10.213,5.742c-0.378,0-0.693-0.068-1.009-0.257
		c0.441-3.467,3.026-7.691,3.026-10.596c-0.63-0.504-1.45-0.693-2.206-0.693c-1.072,0-1.954,0.378-2.648,1.261
		c-0.189-1.634-2.516-2.259-3.903-2.259c-2.086,0-5.427,1.187-6.12,2.007c-2.774,1.266-4.786,4.481-6.362,6.94
		c0,1.014,0.189,2.459,1.765,2.459c0.252,0,0.499-0.063,0.751-0.063c0.504,0.562,3.089,0.688,4.161,0.688
		c1.135,0,0.757-0.31,1.513-0.688c1.455,0,0.762-0.31,1.518-0.877c0.252-0.189,0.63-0.126,0.883-0.315
		c0.757-0.51,2.27-2.59,3.152-2.59l0.189,0.189c-0.315,0.567-0.315,1.324-0.315,1.954c0,0.636,0,1.387,0.315,1.954
		c1.891,1.072,3.966,1.576,6.047,2.138c0.315-0.625,1.261-0.436,1.513-0.625c0.126-0.126,0.189-0.441,0.315-0.625
		c0.315-0.131,1.009-0.131,1.198-0.257c1.891-1.445,4.728-2.327,6.556-4.161c0.883-0.189,1.954-1.576,2.585-1.576l0.189-0.504
		c1.198-0.82,1.576-1.324,2.522-2.149L131.5,43.112z M8.189,69.974c1.702-0.946,3.656-7.187,5.422-9.141l-0.126-0.126
		c0.126-1.198,2.08-2.648,2.464-4.728l0.058-0.567c0.762,0,2.149-3.467,2.086-3.341c0.126-0.315,0.441-0.252,0.63-0.504l0.946-1.392
		c-0.063,0.126,0.883-1.072,1.009-1.135l0.757-1.324l0.693-0.441l0.315-0.883c0.189-0.189,0.378-0.315,0.63-0.441l0.315-0.82
		l0.63-0.441c0.946-1.954,2.333-3.278,3.72-5.164c0.504-0.126,0.82-0.504,0.946-1.009c0.063-0.31,2.138-2.916,2.327-3.362
		c0.441-1.271,1.387-0.825,2.206-2.858l0.194-0.384c0-0.063,0.82-1.208,0.82-1.208v-0.252c0.562-0.567,1.193-0.693,1.193-1.697
		c0.757,0,1.135-2.196,1.891-2.196c0.126,0,0.126,0.063,0.189,0.126c0.189-0.063,0.252-0.567,0.378-0.757l0.757-1.066
		c1.072-1.508,1.954-2.133,2.017-2.259c0.504-0.63-0.252-0.378,1.009-1.003c0.189-0.252,0-0.567,0.315-0.883
		c0.063-0.189,0.378-0.063,0.567-0.436V20.03l0.189-0.126l0.189,0.126c0.126,0,0.126-0.189,0.126-0.252
		c0.189-0.751,1.702-1.13,1.954-1.76c0.252-0.688,6.12-5.411,7.003-5.6l0.505-0.128c0.063,0,0.063,0.063,0.126,0.063
		c0.63,0,1.261-1.518,3.026-1.518c0.63-0.378,1.45-0.378,2.143-0.378h1.198c0,0.63,0.126,1.203,0.126,1.833
		c0,1.135-0.315,2.9-0.63,3.972c-0.504,1.566-1.765,2.7-1.765,4.203c-0.757,0.82-1.135,1.193-1.261,2.327
		c-0.189,0.184-0.504,0.184-0.63,0.436c-0.063,0.252-0.189,1.571-0.504,1.571l-0.189-0.126c-0.189,0-0.252,0.315-0.315,0.441
		l-0.063,0.814c-0.567,0.252-0.441-0.189-0.63,0.63l0.063,0.373c-0.252,0.504-1.765,3.583-2.143,3.583l-0.189,0.252l0.063,0.257
		c-0.757,1.397-1.513,2.795-2.333,4.192c-0.252,0.447-0.693,1.718-1.009,1.97l-0.51,0.384c-0.315,1.072-0.126,2.08-1.324,2.706
		c-0.189,0.567-0.63,2.27-1.135,2.522c-0.757,0.946-0.126,1.639-1.513,2.774l0.126,0.252c0,0.504-1.072,2.27-1.45,2.585
		c-0.063,0-0.252,0.063-0.315,0.189c0.063,0.189,0.252,0.378,0.252,0.63c-0.126,0.126-0.189,0.189-0.378,0.189l-0.63,1.518
		c-0.504,1.135-1.765,2.9-1.954,3.909c0,0.757-0.567,0.567-0.757,1.072c0,0.252,0,0.441,0.063,0.693
		c-0.189,1.072-0.693,1.45-0.883,2.963v0.693c0.82,0.126,1.576,0.693,2.459,0.693c0.189,0,0.441-0.063,0.63-0.126
		c0.378,0.189,0.757,0.315,1.198,0.441l0.252-0.126c1.009-1.261,1.765-2.774,2.837-4.035c0.063-0.315,0.63-0.378,0.63-0.693
		c0-0.126-0.063-0.252-0.063-0.378s1.135-2.017,1.45-2.017c0.189,0,0.189-0.063,0.189-0.252v-0.252
		c0.441-0.757,1.14-0.693,1.14-1.828c0.315-0.757,1.198-0.946,1.639-1.518c0.189-0.189,0.126-0.504,0.252-0.757
		c-0.063-0.126-0.063-0.252-0.063-0.315c0-0.504,2.143-2.396,2.711-3.972c0.252-0.63,0.504-0.315,0.883-0.693
		c0.378-0.378,0.82-1.261,1.135-1.765l0.693-0.441c0.63-1.45,2.333-2.39,3.341-3.651c0.189-0.625,0.252-0.688,0.877-1.009
		c2.396-3.241,1.576-2.096,2.206-3.115c0.378-0.573,1.198-0.762,1.45-1.461c0.189-0.636,1.639-1.655,1.639-2.038
		c0-0.126-0.063-0.252-0.126-0.315c0.693-0.567,1.324-1.009,1.891-1.697c0,0,1.954-2.574,3.341-3.515
		c0.384-1.508,2.401-1.571,2.716-2.763c0.189-0.946,2.522-2.322,2.963-2.763c0.441-0.441,2.963-3.016,3.593-3.016
		c1.009-0.005,2.895-2.333,4.534-2.333l0.063-0.247l0.378,0.058c0.504-0.247,1.198-1.319,1.765-1.319l0.378,0.189
		c0.194-0.252,0.762-0.888,1.077-0.888c0.063,0.063,0.189,0.189,0.315,0.189h0.063l1.387-0.441c0.378-0.126,0.126-0.567,0.946-0.567
		c0.189,0,0.378,0.189,0.63,0.189c0.063,0,0.252-0.063,0.315-0.063c0.189,0.825,0.378,1.707,0.378,2.595v1.193
		c0,3.331-3.72,11.369-3.656,11.243c0-0.126-0.63,1.193-1.518,2.07c-0.378,1.193-1.009,2.396-1.891,3.283
		c-0.189,0.384-0.063,0.762-0.378,1.145c-0.063,0.126-0.504,0.315-0.63,0.51c-0.315,0.378-0.378,0.888-0.567,1.271
		c-1.135,0.378-0.63,0.762-0.946,1.334s-1.508,2.028-1.634,2.343c-0.252,0.63-0.189,1.009-0.946,1.76v0.315
		c-1.009,0.504-0.693,0.693-0.883,1.324c-0.946,0-3.972,5.611-4.854,7.25c-0.441,0.378-1.324,1.455-1.324,2.086
		c0,0.189-2.527,4.35-2.779,4.35c-0.252,0.441-0.189,0.946-0.441,1.387c-0.063,0.126-0.441,0.063-0.504,0.126
		c-0.189,0.189-0.567,1.765-0.757,2.207c-0.189,0.126-0.441,0.189-0.63,0.378c-0.315,1.072-1.513,3.593-2.963,6.683
		c-0.757,0-0.378,1.009-1.702,3.53c-0.504,1.009-1.387,2.333-1.387,3.278c0,0.189,0.063,0.315,0.063,0.504
		c0,0.063-0.63,0.946-0.751,1.072l0.184,0.189c-0.562,0.252-1.319,3.783-1.508,4.539c-0.126,0.567-0.693,1.765-0.757,2.143
		l-0.378,4.35c0.252,0.378,0.946,4.67,1.009,5.364c0.441,0.063,0.693,0.504,0.82,0.883c0.126,0.378,1.003,0,1.003,0.567
		c0.567,0.315,1.009,1.891,2.143,2.143c-0.757-0.126,4.161,2.007,5.8,2.007c0.441,0,0.946-0.436,2.017-0.688
		c0.063,0.063,0.189,0.252,0.315,0.252c0.063,0,0.063-0.063,0.126-0.063c0.825-0.751,0.825-0.94,2.023-1.129
		c2.585-2.396,6.367-4.413,8.064-7.886c0-0.82,0.063-1.954-0.688-2.522c-0.693,0.946-0.63,2.396-0.883,3.467
		c-0.82,0.378-0.883,1.329-1.45,1.833c-3.593,2.711-6.304,5.359-9.146,5.359c-2.522,0-3.404-2.27-4.854-2.27
		c-0.63,0-1.387-2.207-1.387-2.207l-0.126-0.441l0.252-1.009c-0.063-0.126-0.063-0.252-0.063-0.378c0-0.441,0.252-0.825,0.252-1.329
		c0-0.126-0.315-0.126-0.378-0.126c0.189-1.702,0.883-4.161,1.324-5.989c0.126-0.441,1.198-2.017,1.198-2.396
		c0,0-0.063-0.126-0.063-0.189l0.126-0.378c0,0,0-0.063,0.063-0.063l0.189-0.63c0.126-0.378,0.315-0.82,0.378-1.261
		c0.126-0.567,1.261-3.846,1.702-3.909c0.252-0.883,0.63-1.891,1.072-2.711v-0.252c0,0.504,0.63-1.576,1.009-1.954
		c1.009-0.252,2.464-4.287,3.157-5.926c-0.126,0.126,1.45-1.45,1.45-2.648c0.441-0.63,1.765-2.648,1.891-3.278
		c0,0,0.126-0.126,0.189-0.189c-0.063,0.063,1.387-1.513,1.387-2.207v-0.378l0.315-0.063c0.441-0.883,1.324-2.774,1.639-2.774h0.126
		c0,0,0.189-0.32,0.693-1.203l1.76-3.089l-0.063-0.567c0.441-0.126,1.513-1.324,1.513-1.954l0.378-0.82
		c0.126-0.315,0.252-0.189,0.378-0.378c0.315-0.441,0.378-1.072,0.693-1.513c0.567-0.82,1.266-1.634,1.581-2.579
		c0.126-0.252,0.252-0.063,0.315-0.252l0.567-1.644c0.315-0.32,1.072-1.082,1.072-1.529c0-0.573,0.883-1.524,1.261-2.417
		c0.441-0.951,1.639-2.411,1.954-3.294l0.63-1.818c0.504-1.571,1.949-3.394,1.949-5.212c0-0.189-0.063-0.441-0.063-0.63
		c0.441-1.193,0.693-3.01,0.693-4.266c0-0.189-0.063-0.441-0.063-0.63v-1.066c0-1.072-1.387-5.29-4.534-5.29
		c-0.441,0-1.261,0.441-1.639,0.693L88,11.344c-0.504,0.247-0.82,0.063-1.135,0.562c-0.315,0.126-3.157,1.266-3.157,1.46
		l-0.126,0.189c-0.567,0-0.378,0.184-0.63,0.247c-0.126-0.063-0.315-0.126-0.441-0.126c-0.315,0.189-0.63,0.51-0.883,0.825
		c-0.126,0-0.189-0.126-0.315-0.126c-0.94,0-2.075,2.196-3.21,2.196c-0.378,0-2.143,1.319-2.585,1.76
		c-0.946,0.378-1.387,1.382-2.143,1.949l-0.126,0.562c-1.324,1.13-2.017,1.319-3.283,2.763c0,0.126-0.063,0.378-0.126,0.441h-0.252
		c-0.252,0.373,0.126,0.499-0.63,0.499c-0.063-0.562,0.063,0.946-1.198,1.382c-0.693,0-0.883,1.571-2.396,2.889
		c-0.252,0.189-0.757,0.252-0.946,0.504c-0.126,0.126,0,1.066-0.441,1.193c-1.072,0.252-0.693,0.762-1.639,2.159l-0.693,0.126
		c-0.189,0.257-0.189,0.573-0.315,0.893c-0.567,0.447-1.135,0.447-1.261,1.271c-0.315,1.46-1.823,1.145-1.823,2.159
		c0,0.131,0.063,0.32,0.063,0.447c-1.576,1.324-2.774,2.516-4.224,3.588c-0.504,1.45-1.387,1.261-1.576,2.08
		c-0.126,0.504-0.567,0.441-0.883,0.82c-0.567,0.63-1.387,2.837-2.333,2.837c0.126-1.072,1.072-1.828,1.072-2.459
		c0-0.189-0.063-0.378-0.126-0.567C50.496,43.49,51,42.986,51,42.545s0.378-0.315,0.378-0.441l0.189-1.072
		c1.135-1.949,2.206-3.588,2.774-5.816c1.072-0.378,2.522-4.639,3.278-6.21l1.324-2.889c0,0.126,3.273-7.975,3.273-10.36
		c-0.189-0.378-0.567-1.319-0.567-1.697c0-0.32,0.189-0.573,0.189-0.888c0-0.63-0.757-1.576-0.757-1.765c0-0.131,0-0.32,0.063-0.447
		c-0.378-0.441-1.513-0.567-1.513-1.187l-1.13-0.441c-1.135,0.441-0.82-0.567-5.296,1.503c-0.252,0.126-0.315,0.441-0.63,0.51
		c-0.504,0.378-1.198,0.378-1.702,0.693c-0.189,0.126-0.126,0.567-0.378,0.567c-0.126-0.063-0.315-0.126-0.441-0.126
		c-0.504,0.252-0.757,0.82-1.198,1.198c-0.567,0.447-0.946,0.189-1.387,1.072c-0.447,0.441-2.338,1.198-2.338,1.886
		c0-0.063-2.143,2.574-3.404,3.016c-0.189,0.252-0.063,0.567-0.315,0.877c-0.883,0-1.261,1.445-1.891,1.949
		c-0.126,0.315-0.883,0.315-1.198,1.319l0.063,0.252c-0.441,0.31-1.387,1.319-1.765,1.445c-0.189,1.066-1.576,1.818-1.576,2.133
		c0,1.319-0.877,0.625-0.94,1.382c0,0.063-0.825,1.382-1.266,2.08c-0.126,0.189-0.378,0.126-0.504,0.315
		c-0.441,0.257-0.63,1.461-1.072,1.97c-0.378,0.384-1.193,0.83-1.256,1.334c-0.189,1.271-1.576,1.592-1.576,2.417
		c0,0.063,0.063,0.194,0.063,0.257c-0.126,0.315-0.567,0.573-0.883,1.072c-1.576,2.075-3.278,2.769-3.53,4.282
		c-0.063,0.252-0.693,0.378-0.82,0.63l0.063,0.252c-0.946,0.946-1.45,1.828-1.828,2.017c0.189-0.378,2.206-3.783,2.27-4.035
		c0.126-0.315,0.189-0.693,0.315-1.009c0.063-0.126,0.315-0.189,0.378-0.315c0.567-1.003,1.387-3.404,1.954-4.676
		c0.946-0.699,2.333-4.833,2.774-6.404c0.252-0.82,0.946-0.63,1.193-1.193c-0.184-0.063-0.436-0.126-0.436-0.378
		c0-0.252,0.436-0.693,0.562-0.94l-0.252-0.441c0.504-1.003,0.315-1.066,1.009-1.508c0-0.252-0.126-0.562-0.189-0.814
		c0.063-0.063,0.252-0.189,0.252-0.252c0.757-3.016,1.324-7.849,1.324-10.938c0-1.261-0.126-2.516-0.315-3.72
		c-1.009-0.883-0.378-1.45-1.387-2.522c-0.189-0.189,0-0.567-0.252-0.883c-0.315-0.504-0.94-0.757-1.256-1.198
		c0-0.126,0.063-0.252,0.063-0.378c0-0.189-2.648-2.275-3.656-2.401c0.252,0-2.08-1.629-3.152-1.629
		c-0.126,0-0.315,0.126-0.315,0.252c-0.126,0-0.189-0.126-0.189-0.252c-0.946,0.126-1.891,0.315-2.837,0.315
		s-2.143,0.809-3.599,0.809c-0.82,0-0.883,0.699-1.45,1.14c-0.252,0.194-0.63,0-0.82,0.257c-0.252,0.126-0.189,0.562-0.378,0.751
		c-0.693,0.625-1.765,1.003-2.333,1.697c-0.252,0.315-0.189,0.762-0.378,1.077C9.955,6.739,9.198,7.181,8.694,7.811
		C8.253,8.378,8.001,9.072,7.622,9.639C7.559,9.702,7.244,9.702,7.118,9.833c-0.504,0.504,0.189,0.693-1.324,1.818
		c-0.126,0.189-0.441,1.266-0.63,1.266c0,0.063-0.063,0.189-0.063,0.189c0,0.126,0.063,0.252,0.063,0.378
		c-0.378,0.699-0.441,1.45-0.757,2.143l-0.315-0.063c-0.373,0.252-0.063,1.13-0.625,1.13l-0.126,1.571l-0.252,0.189
		c-1.077,3.452-2.023,6.971-2.522,10.612c-0.126,0.499-0.252,1.13-0.252,1.697c0,0.384,0.063,0.762,0.063,1.145
		C0.378,32.034,0,32.16,0,32.927c0,1.587,0.567,2.285,0.567,3.494c0,0.194-0.126,0.384-0.126,0.573c0-0.063,0.877,3.656,1.823,3.656
		c1.392,0,1.455-0.877,1.455-1.949c0-0.499,0.877-0.625,0.877-1.581c0-0.252-0.252-0.573-0.378-0.762
		c-1.13,0-1.13,1.592-1.886,1.592c-0.951,0-1.14-3.625-1.14-4.324c0.063-0.063,0.252-0.257,0.252-0.384
		c0-0.252-0.189-0.447-0.189-0.699c0-0.126,0.252-0.699,0.315-0.825c-0.126-0.063-0.189-0.194-0.189-0.32
		c0-0.189,0.252-0.252,0.252-0.636c0-0.252-0.189-0.441-0.189-0.693c0-0.252,0.378-0.688,0.378-0.814
		c0-0.252-0.126-0.441-0.126-0.63c0-0.126,0.252-0.063,0.252-0.441c0-1.629,0.315-3.515,0.699-5.085
		c0.189-0.877,0.946-1.503,0.946-2.448c0-0.189-0.063-0.31-0.126-0.499c0.499-0.252,0.94-1.76,1.003-2.327
		c0.126-1.13,0.567-1.319,1.009-2.133c0.504-0.883,1.009-4.04,2.9-5.227c0.567-1.644,1.954-3.157,3.152-4.355
		c0.126-0.126,1.702-2.023,1.828-2.023s0.252,0.063,0.378,0.063c0.315,0.005,0.252-0.562,0.441-0.751
		c1.198-1.203,2.653-1.014,4.04-1.644s2.963-0.441,4.413-0.693c0.126,0.441,0.82,1.072,1.261,1.198
		c0.693,0.189,0.504,0.951,1.261,1.014l0.315-0.063c0.063,1.513,1.45,2.017,1.639,2.963c0.315,1.765,0.757,3.536,0.757,5.353
		c0,1.581-1.135,10.255-2.143,10.318c-0.063,0.126-0.063,0.441-0.063,0.757v0.751c0,0.504-0.189,0.315-0.378,0.63l-0.378,0.814
		v0.189c0,0.189-0.063,0.252-0.315,0.315c-0.63,3.136-2.333,3.641-2.774,7.691c-0.126,0.762-0.82,1.145-1.072,1.781l-1.765,4.308
		c-0.063,0.315-1.702,3.084-2.143,3.84c-1.518,2.522-2.905,5.169-4.292,7.696l-1.009,2.08l-0.315,0.504
		c-0.883,1.702-1.576,3.53-2.585,5.169c-0.693,1.072-0.883,2.396-2.143,3.026c0,1.261-1.009,1.954-1.009,2.9l-1.261,2.143
		c-0.499,0.82-0.625,1.765-1.13,2.585l-0.504,0.252l-0.126,0.252c0,0.189,0,0.315,0.063,0.504c-0.257,0.504-1.014,1.702-1.014,1.639
		c0,0.126,0.126,0.252,0.252,0.252c-0.252,0.883-0.693,1.576-0.693,2.585c0,0.693,1.392,1.261,1.96,1.261
		c2.643,0,2.264-3.089,3.651-3.089C6.991,72.684,8.063,70.289,8.189,69.974"/>
</g>
</svg>
